{
  "batman": "bat-#SITE_NAME_SHORT#",
  "bridge": "br-#SITE_NAME_SHORT#",
  "mesh-vpn": [ "fastd-#SITE_NAME_SHORT#" ],
  "wan": "#WAN_INTERFACE#",
  "rate_limit": 30,
  "rate_limit_burst": 10,
  "fastd_socket": "/var/run/fastd.#SITE_NAME#.sock"
}
